<svg id="Group_16017" data-name="Group 16017" xmlns="http://www.w3.org/2000/svg" width="20.026" height="9.771" viewBox="0 0 20.026 9.771">
  <path id="Path_2822" data-name="Path 2822" d="M140.135,183.1l9.935,2.117,5.248-3.98H135.291L142.228,191l5.308-3.861Z" transform="translate(-135.291 -181.233)" fill="#FA8C73"/>
</svg>
