<svg xmlns="http://www.w3.org/2000/svg" width="30" height="30" viewBox="0 0 30 30">
  <g id="Group_13885" data-name="Group 13885" transform="translate(0 0)">
    <rect id="Rectangle_2265" data-name="Rectangle 2265" width="30" height="30" transform="translate(0 0)" fill="none" opacity="0.2"/>
    <g id="Group_13866" data-name="Group 13866" transform="translate(3 3)">
      <path id="Path_7120" data-name="Path 7120" d="M46.9,38.219l9.862,5.56V57.638H37.039V43.779l9.862-5.56m0-2.822a.75.75,0,0,0-.369.1L34.887,42.059a.763.763,0,0,0-.387.665V59.436a.759.759,0,0,0,.755.762h23.29a.759.759,0,0,0,.755-.762V42.724a.763.763,0,0,0-.387-.665L47.269,35.494a.75.75,0,0,0-.369-.1Z" transform="translate(-34.5 -35.397)" fill="#ffffff"/>
      <g id="Group_10965" data-name="Group 10965" transform="translate(5.818 17.119)">
        <path id="Path_7121" data-name="Path 7121" d="M74.449,129.056H63.612a1.112,1.112,0,1,1,0-2.223H74.449a1.112,1.112,0,0,1,0,2.223Z" transform="translate(-62.5 -126.833)" fill="#ffffff"/>
      </g>
      <g id="Group_10966" data-name="Group 10966" transform="translate(5.818 12.611)">
        <path id="Path_7122" data-name="Path 7122" d="M74.449,106.306H63.612a1.112,1.112,0,1,1,0-2.223H74.449a1.112,1.112,0,0,1,0,2.223Z" transform="translate(-62.5 -104.083)" fill="#ffffff"/>
      </g>
      <g id="Group_10967" data-name="Group 10967" transform="translate(5.818 8.102)">
        <path id="Path_7123" data-name="Path 7123" d="M74.449,83.556H63.612a1.112,1.112,0,1,1,0-2.223H74.449a1.112,1.112,0,0,1,0,2.223Z" transform="translate(-62.5 -81.333)" fill="#ffffff"/>
      </g>
    </g>
  </g>
</svg>
